{
  "prepare_queue": {
    "installed": [],
    "uninstalled": []
  },
  "config_munge": {
    "files": {}
  },
  "installed_plugins": {
    "com.razorpay.cordova": {
      "PACKAGE_NAME": "com.prpwebs.londonmarket"
    },
    "cordova-android-play-services-gradle-release": {
      "PLAY-SERVICES-ADS": "18.0.0",
      "PLAY-SERVICES-ADS-IDENTIFIER": "17.0.0",
      "PLAY-SERVICES-ADS-LITE": "18.0.0",
      "PLAY-SERVICES-AFS-NATIVE": "17.0.0",
      "PLAY-SERVICES-ANALYTICS": "17.0.0",
      "PLAY-SERVICES-ANALYTICS-IMPL": "17.0.0",
      "PLAY-SERVICES-APPINVITE": "18.0.0",
      "PLAY-SERVICES-AUDIENCE": "17.0.0",
      "PLAY-SERVICES-AUTH": "17.0.0",
      "PLAY-SERVICES-AUTH-API-PHONE": "17.0.0",
      "PLAY-SERVICES-AWARENESS": "17.0.0",
      "PLAY-SERVICES-BASE": "17.0.0",
      "PLAY-SERVICES-BASEMENT": "17.0.0",
      "PLAY-SERVICES-CAST": "17.0.0",
      "PLAY-SERVICES-CAST-FRAMEWORK": "17.0.0",
      "PLAY-SERVICES-CLEARCUT": "17.0.0",
      "PLAY-SERVICES-CRONET": "17.0.0",
      "PLAY-SERVICES-DRIVE": "17.0.0",
      "PLAY-SERVICES-FIDO": "18.0.0",
      "PLAY-SERVICES-FITNESS": "17.0.0",
      "PLAY-SERVICES-FLAGS": "17.0.0",
      "PLAY-SERVICES-GAMES": "18.0.0",
      "PLAY-SERVICES-GASS": "18.0.0",
      "PLAY-SERVICES-GCM": "17.0.0",
      "PLAY-SERVICES-IDENTITY": "17.0.0",
      "PLAY-SERVICES-IID": "17.0.0",
      "PLAY-SERVICES-INSTANTAPPS": "17.0.0",
      "PLAY-SERVICES-LOCATION": "17.0.0",
      "PLAY-SERVICES-MAPS": "17.0.0",
      "PLAY-SERVICES-MEASUREMENT": "17.0.0",
      "PLAY-SERVICES-MEASUREMENT-API": "17.0.0",
      "PLAY-SERVICES-MEASUREMENT-IMPL": "17.0.0",
      "PLAY-SERVICES-MEASUREMENT-SDK": "17.0.0",
      "PLAY-SERVICES-MEASUREMENT-SDK-API": "17.0.0",
      "PLAY-SERVICES-NEARBY": "17.0.0",
      "PLAY-SERVICES-OSS-LICENSES": "17.0.0",
      "PLAY-SERVICES-PANORAMA": "17.0.0",
      "PLAY-SERVICES-PHENOTYPE": "17.0.0",
      "PLAY-SERVICES-PLACES": "17.0.0",
      "PLAY-SERVICES-PLACES-PLACEREPORT": "17.0.0",
      "PLAY-SERVICES-PLUS": "17.0.0",
      "PLAY-SERVICES-SAFETYNET": "17.0.0",
      "PLAY-SERVICES-STATS": "17.0.0",
      "PLAY-SERVICES-TAGMANAGER": "17.0.0",
      "PLAY-SERVICES-TAGMANAGER-API": "17.0.0",
      "PLAY-SERVICES-TAGMANAGER-V4-IMPL": "17.0.0",
      "PLAY-SERVICES-TASKS": "17.0.0",
      "PLAY-SERVICES-VISION": "18.0.0",
      "PLAY-SERVICES-VISION-COMMON": "18.0.0",
      "PLAY-SERVICES-VISION-IMAGE-LABEL": "18.0.0",
      "PLAY-SERVICES-WALLET": "17.0.0",
      "PLAY-SERVICES-WEARABLE": "17.0.0",
      "PACKAGE_NAME": "com.prpwebs.londonmarket"
    },
    "cordova-plugin-app-update": {
      "PACKAGE_NAME": "com.prpwebs.londonmarket"
    },
    "cordova-plugin-appcenter-analytics": {
      "PACKAGE_NAME": "com.prpwebs.londonmarket"
    },
    "cordova-plugin-camera": {
      "PACKAGE_NAME": "com.prpwebs.londonmarket"
    },
    "cordova-plugin-code-push": {
      "PACKAGE_NAME": "com.prpwebs.londonmarket"
    },
    "cordova-plugin-device": {
      "PACKAGE_NAME": "com.prpwebs.londonmarket"
    },
    "cordova-plugin-file-transfer": {
      "PACKAGE_NAME": "com.prpwebs.londonmarket"
    },
    "cordova-plugin-firebase": {
      "PACKAGE_NAME": "com.prpwebs.londonmarket"
    },
    "cordova-plugin-globalization": {
      "PACKAGE_NAME": "com.prpwebs.londonmarket"
    },
    "cordova-plugin-inappbrowser": {
      "PACKAGE_NAME": "com.prpwebs.londonmarket"
    },
    "cordova-plugin-ionic-keyboard": {
      "PACKAGE_NAME": "com.prpwebs.londonmarket"
    },
    "cordova-plugin-ionic-webview": {
      "PACKAGE_NAME": "com.prpwebs.londonmarket"
    },
    "cordova-plugin-splashscreen": {
      "PACKAGE_NAME": "com.prpwebs.londonmarket"
    },
    "cordova-plugin-whitelist": {
      "PACKAGE_NAME": "com.prpwebs.londonmarket"
    },
    "cordova-plugin-x-socialsharing": {
      "ANDROID_SUPPORT_V4_VERSION": "24.1.1+",
      "PACKAGE_NAME": "com.prpwebs.londonmarket"
    },
    "cordova-plugin-zip": {
      "PACKAGE_NAME": "com.prpwebs.londonmarket"
    },
    "onesignal-cordova-plugin": {
      "PACKAGE_NAME": "com.prpwebs.londonmarket"
    }
  },
  "dependent_plugins": {
    "code-push": {
      "PACKAGE_NAME": "com.prpwebs.londonmarket"
    },
    "cordova-plugin-appversion": {
      "PACKAGE_NAME": "com.prpwebs.londonmarket"
    },
    "cordova-plugin-appcenter-shared": {
      "PACKAGE_NAME": "com.prpwebs.londonmarket"
    },
    "cordova-plugin-dialogs": {
      "PACKAGE_NAME": "com.prpwebs.londonmarket"
    },
    "cordova-plugin-file": {
      "PACKAGE_NAME": "com.prpwebs.londonmarket"
    },
    "es6-promise-plugin": {
      "PACKAGE_NAME": "com.prpwebs.londonmarket"
    }
  }
}
